dumpfile.vcd
$date
	Sun Dec 11 22:23:53 2016
$end
$version
	Icarus Verilog
$end
$timescale
	1s
$end
$scope module testbench $end
$scope module p1 $end
$var wire 32 ! ALU_out [31:0] $end
$var wire 32 " ALU_source1 [31:0] $end
$var wire 32 # ALU_source2 [31:0] $end
$var wire 4 $ ALUdest [3:0] $end
$var wire 4 % D [3:0] $end
$var wire 4 & P [3:0] $end
$var wire 1 ' clk $end
$var wire 1 ( halt $end
$var wire 16 ) ir_conn [15:0] $end
$var wire 16 * ir_conn2 [15:0] $end
$var wire 32 + jump_addr [31:0] $end
$var wire 1 , jump_taken $end
$var wire 16 - parallel_addr__reg_to_alu [15:0] $end
$var wire 16 . parallel_addr_mon [15:0] $end
$var wire 4 / parallel_addr_reg__inst_to_reg [3:0] $end
$var wire 1 0 parallel_store_en__inst_to_reg $end
$var wire 1 1 parallel_store_en__reg_to_alu $end
$var wire 1 2 parallel_store_mon $end
$var wire 16 3 parallel_val__reg_to_alu [15:0] $end
$var wire 16 4 parallel_val_mon [15:0] $end
$var wire 4 5 parallel_val_reg__inst_to_reg [3:0] $end
$var wire 16 6 pc [15:0] $end
$var wire 1 7 reset $end
$var wire 32 8 u0 [31:0] $end
$var wire 32 9 u1 [31:0] $end
$var wire 32 : u2 [31:0] $end
$var wire 32 ; u3 [31:0] $end
$var wire 32 < u4 [31:0] $end
$var wire 32 = u5 [31:0] $end
$var wire 32 > u6 [31:0] $end
$var wire 32 ? u7 [31:0] $end
$var wire 32 @ u8 [31:0] $end
$var wire 32 A u9 [31:0] $end
$var wire 1 B write_en $end
$var reg 16 C ir [15:0] $end
$var reg 1 D jump $end
$var reg 16 E pc_mon [15:0] $end
$scope module ib $end
$var wire 1 ' clk $end
$var wire 32 F ir32 [31:0] $end
$var wire 64 G ir64 [63:0] $end
$var wire 32 H jump_addr [31:0] $end
$var wire 1 , jump_taken $end
$var wire 1 I mainmen $end
$var wire 1 7 reset $end
$var reg 1 J high_or_low_instruction $end
$var integer 32 K idx [31:0] $end
$var reg 16 L ir [15:0] $end
$var reg 1 M jump_flag $end
$var reg 1 N jump_type $end
$var reg 2 O oo_execuction [1:0] $end
$var reg 16 P oo_instruction_buffer [15:0] $end
$var reg 4 Q oo_parallel_addr_reg [3:0] $end
$var reg 4 R oo_parallel_val_reg [3:0] $end
$var reg 4 S parallel_addr_reg [3:0] $end
$var reg 1 T parallel_store_en $end
$var reg 1 U parallel_store_en_buf $end
$var reg 4 V parallel_val_reg [3:0] $end
$var reg 16 W pc [15:0] $end
$upscope $end
$scope module rb $end
$var wire 32 X ALU_in [31:0] $end
$var wire 4 Y ALUdest [3:0] $end
$var wire 1 ' clk $end
$var wire 16 Z ir_in [15:0] $end
$var wire 1 , jump_taken $end
$var wire 4 [ parallel_addr_reg_in [3:0] $end
$var wire 1 0 parallel_store_en_in $end
$var wire 4 \ parallel_val_reg_in [3:0] $end
$var wire 16 ] pc [15:0] $end
$var wire 1 7 reset $end
$var wire 1 B write_en $end
$var reg 32 ^ ALU_source1 [31:0] $end
$var reg 32 _ ALU_source2 [31:0] $end
$var reg 4 ` D [3:0] $end
$var reg 4 a P [3:0] $end
$var reg 16 b ir_in2 [15:0] $end
$var reg 16 c parallel_addr_mon [15:0] $end
$var reg 16 d parallel_addr_out [15:0] $end
$var reg 16 e parallel_addr_reg_buf [15:0] $end
$var reg 1 f parallel_store_en_buf $end
$var reg 1 g parallel_store_en_out $end
$var reg 1 h parallel_store_mon $end
$var reg 16 i parallel_val_buf [15:0] $end
$var reg 16 j parallel_val_mon [15:0] $end
$var reg 16 k parallel_val_out [15:0] $end
$var reg 32 l u0 [31:0] $end
$var reg 32 m u1 [31:0] $end
$var reg 32 n u2 [31:0] $end
$var reg 32 o u3 [31:0] $end
$var reg 32 p u4 [31:0] $end
$var reg 32 q u5 [31:0] $end
$var reg 32 r u6 [31:0] $end
$var reg 32 s u7 [31:0] $end
$var reg 32 t u8 [31:0] $end
$var reg 32 u u9 [31:0] $end
$upscope $end
$scope module ab $end
$var wire 32 v ALU_source1 [31:0] $end
$var wire 32 w ALU_source2 [31:0] $end
$var wire 4 x D [3:0] $end
$var wire 4 y P [3:0] $end
$var wire 1 ' clk $end
$var wire 16 z ir_in2 [15:0] $end
$var wire 16 { parallel_addr [15:0] $end
$var wire 1 1 parallel_store_en $end
$var wire 16 | parallel_val [15:0] $end
$var wire 1 7 reset $end
$var reg 4 } ALUdest [3:0] $end
$var reg 4 ~ ALUdest_buff [3:0] $end
$var reg 32 !" ALUout [31:0] $end
$var reg 32 "" ALUout_buff [31:0] $end
$var reg 1 #" halt $end
$var reg 32 $" jump_addr [31:0] $end
$var reg 1 %" jump_taken $end
$var reg 16 &" parallel_addr_buf [15:0] $end
$var reg 1 '" parallel_store_en_buf $end
$var reg 16 (" parallel_val_buf [15:0] $end
$var reg 1 )" write_en $end
$upscope $end
$upscope $end
$upscope $end
$enddefinitions $end
#0
$dumpvars
0)"
b0 ("
0'"
b0 &"
0%"
b0 $"
0#"
b0 ""
b0 !"
b0 ~
b0 }
b0 |
b0 {
bx z
bx y
bx x
b0 w
b0 v
bx u
bx t
bx s
bx r
bx q
bx p
bx o
bx n
bx m
bx l
b0 k
bx j
b0 i
xh
0g
0f
b0 e
b0 d
bx c
bx b
bx a
bx `
b0 _
b0 ^
b0 ]
b0 \
b0 [
b10100101100111 Z
b0 Y
b0 X
b0 W
b0 V
0U
0T
b0 S
b0 R
b0 Q
b0 P
b0 O
xN
xM
b10100101100111 L
b10000000000000000 K
0J
zI
b0 H
b10100101100111111100001010111111100110101000000000000000000000 G
b101001011001111111000010101111 F
bx E
xD
bx C
0B
bx A
bx @
bx ?
bx >
bx =
bx <
bx ;
bx :
bx 9
bx 8
07
b0 6
b0 5
bx 4
b0 3
x2
01
00
b0 /
bx .
b0 -
0,
b0 +
bx *
b10100101100111 )
0(
0'
bx &
bx %
b0 $
b0 #
b0 "
b0 !
$end
#1
b10000000000000000 K
b10100101100111111100001010111111100110101000000000000000000000 G
17
#10
b11100110101000000000000000000000 F
b10 W
b1110011010100000000000000000000000001001011010001111000001111011 G
b10 6
b10 ]
1J
b1111 S
b1111 /
b1111 [
b1010 V
b1010 5
b1010 \
1T
10
b1001 `
b1001 %
b1001 x
b10100101100111 b
b10100101100111 *
b10100101100111 z
b0 c
b0 .
b0 j
b0 4
0h
02
b1110 u
b1110 A
b1101 t
b1101 @
b0 s
b0 ?
b0 r
b0 >
b1000 q
b1000 =
b1001 p
b1001 <
b0 o
b0 ;
b0 n
b0 :
b0 m
b0 9
b0 l
b0 8
bx }
bx $
bx Y
bx ~
1)"
1B
b0 E
b10100101100111 C
0D
1'
#20
0'
#30
b10 E
b1001 }
b1001 $
b1001 Y
b1001 ~
1g
11
b1110 k
b1110 3
b1110 |
b1001 d
b1001 -
b1001 {
b1110 c
b1110 .
b1001 j
b1001 4
1h
12
b11 W
b11 6
b11 ]
b0 S
b0 /
b0 [
b0 V
b0 5
b0 \
0J
b1110011010100000 L
b1110011010100000 )
b1110011010100000 Z
0T
00
1'
#40
0'
#50
b1001011010001111000001111011 F
b100 W
b100101101000111100000111101100000000000000000000000000000000 G
b100 6
b100 ]
1J
b0 L
b0 )
b0 Z
b1001 ^
b1001 "
b1001 v
b110 `
b110 %
b110 x
0g
01
b1110011010100000 b
b1110011010100000 *
b1110011010100000 z
b0 k
b0 3
b0 |
b0 d
b0 -
b0 {
b0 c
b0 .
b0 j
b0 4
0h
02
b1110 ("
b1001 &"
1'"
b11 E
b1110011010100000 C
1'
#60
0'
#70
b0 F
b100 E
b0 C
b0 ("
b0 &"
0'"
b1110 ""
b1110 !"
b1110 !
b1110 X
b110 }
b110 $
b110 Y
b110 ~
b0 ^
b0 "
b0 v
b0 `
b0 %
b0 x
b0 b
b0 *
b0 z
b110 W
b101000011001110010100101100111 G
b110 6
b110 ]
b100101101000 L
b100101101000 )
b100101101000 Z
b1011 S
b1011 /
b1011 [
b111 V
b111 5
b111 \
1T
10
1'
#80
0'
#90
b111 W
b111 6
b111 ]
b0 S
b0 /
b0 [
b0 V
b0 5
b0 \
0J
b0 L
b0 )
b0 Z
0T
00
b1110 ^
b1110 "
b1110 v
b1001 `
b1001 %
b1001 x
1g
11
b100101101000 b
b100101101000 *
b100101101000 z
b1000 k
b1000 3
b1000 |
b1000 c
b1000 .
1h
12
b0 ""
b0 !"
b0 !
b0 X
b0 }
b0 $
b0 Y
b0 ~
b110 E
b100101101000 C
1'
#100
0'
#110
b101000011001110010100101100111 F
b111 E
b0 C
b1000 ("
1'"
b1001 }
b1001 $
b1001 Y
b1001 ~
b0 ^
b0 "
b0 v
b0 `
b0 %
b0 x
0g
01
b0 b
b0 *
b0 z
b0 k
b0 3
b0 |
b0 c
b0 .
0h
02
b1110 l
b1110 8
b1000 W
b10100001100111001010010110011111110000101111101111000010101111 G
b1000 6
b1000 ]
1J
1'
#120
0'
#130
b11110000101111101111000010101111 F
b1010 W
b1111000010111110111100001010111100001001011001111111000001111011 G
b1010 6
b1010 ]
b1111 Q
b1010 R
b10100101100111 P
b1110 S
b1110 /
b1110 [
b1011 V
b1011 5
b1011 \
b10100001100111 L
b10100001100111 )
b10100001100111 Z
1T
10
b10 O
b0 ("
0'"
b0 }
b0 $
b0 Y
b0 ~
b1000 E
1'
#140
0'
#150
b1001011001111111000001111011 F
b1010 E
b10100001100111 C
b1110 ^
b1110 "
b1110 v
b1000 `
b1000 %
b1000 x
1g
11
b10100001100111 b
b10100001100111 *
b10100001100111 z
b1101 k
b1101 3
b1101 |
b1000 d
b1000 -
b1000 {
b1101 c
b1101 .
b1000 j
b1000 4
1h
12
b1100 W
b100101100111111100000111101110101011000100011011101100010001 G
b1100 6
b1100 ]
b1111000010101111 P
b1111 S
b1111 /
b1111 [
b1010 V
b1010 5
b1010 \
b10100101100111 L
b10100101100111 )
b10100101100111 Z
b1 O
1'
#160
0'
#170
b1101 W
b1101 6
b1101 ]
b1011 S
b1011 /
b1011 [
b111 V
b111 5
b111 \
0J
b100101100111 L
b100101100111 )
b100101100111 Z
0T
00
b1001 `
b1001 %
b1001 x
b10100101100111 b
b10100101100111 *
b10100101100111 z
b1110 k
b1110 3
b1110 |
b1001 d
b1001 -
b1001 {
b1110 c
b1110 .
b1001 j
b1001 4
b1101 ("
b1000 &"
1'"
b1110 ""
b1110 !"
b1110 !
b1110 X
b1000 }
b1000 $
b1000 Y
b1000 ~
b1100 E
b10100101100111 C
1'
#180
0'
#190
b10101011000100011011101100010001 F
b1101 E
b100101100111 C
b1110 ("
b1001 &"
b1001 }
b1001 $
b1001 Y
b1001 ~
0g
01
b100101100111 b
b100101100111 *
b100101100111 z
b1000 k
b1000 3
b1000 |
b0 d
b0 -
b0 {
b1000 c
b1000 .
b0 j
b0 4
0h
02
b1110 W
b1010101100010001101110110001000110111011000100011011101100010001 G
b1110 6
b1110 ]
1J
b1111000001111011 L
b1111000001111011 )
b1111000001111011 Z
1'
#200
0'
#210
b1111 W
b1111 6
b1111 ]
b1 S
b1 /
b1 [
b1 V
b1 5
b1 \
0J
b1010101100010001 L
b1010101100010001 )
b1010101100010001 Z
b1000 _
b1000 #
b1000 w
b0 ^
b0 "
b0 v
b1111000001111011 b
b1111000001111011 *
b1111000001111011 z
b1110 n
b1110 :
b1000 ("
b0 &"
0'"
b0 ""
b0 !"
b0 !
b0 X
b1110 E
b1111000001111011 C
1'
#220
0'
#230
b10111011000100011011101100010001 F
b1111 E
b1010101100010001 C
0)"
0B
b10001 ^
b10001 "
b10001 v
b1011 `
b1011 %
b1011 x
b1010101100010001 b
b1010101100010001 *
b1010101100010001 z
b0 k
b0 3
b0 |
b0 c
b0 .
b1110 o
b1110 ;
b10000 W
b1011101100010001101110110001000110100110011001101011011001100110 G
b10000 6
b10000 ]
1J
b1011101100010001 L
b1011101100010001 )
b1011101100010001 Z
1'
#240
0'
#250
b10001 W
b10001 6
b10001 ]
0J
b10001 ^
b1011101100010001 b
b1011101100010001 *
b1011101100010001 z
b0 o
b0 ;
b0 ("
b10001 ""
b10001 !"
b10001 !
b10001 X
b1011 }
b1011 $
b1011 Y
b1011 ~
1)"
1B
b10000 E
b1011101100010001 C
1'
#260
0'
#270
b10100110011001101011011001100110 F
b10001 E
b1000100010001 ""
b1000100010001 !"
b1000100010001 !
b1000100010001 X
b10001 _
b10001 #
b10001 w
b10001 ^
b10010 W
b1010011001100110101101100110011010110110011001101011011001100110 G
b10010 6
b10010 ]
1J
1'
#280
0'
#290
b10011 W
b10011 6
b10011 ]
b110 S
b110 /
b110 [
b110 V
b110 5
b110 \
0J
b1010011001100110 L
b1010011001100110 )
b1010011001100110 Z
b1000100010001 _
b1000100010001 #
b1000100010001 w
b10001 ^
b10001 q
b10001 =
b100010001000100010001 ""
b100010001000100010001 !"
b100010001000100010001 !
b100010001000100010001 X
b10010 E
1'
#300
0'
#310
b10110110011001101011011001100110 F
b10011 E
b1010011001100110 C
b10001000100010001000100010001 ""
b10001000100010001000100010001 !"
b10001000100010001000100010001 !
b10001000100010001000100010001 X
b1100110 ^
b1100110 "
b1100110 v
b110 `
b110 %
b110 x
b1010011001100110 b
b1010011001100110 *
b1010011001100110 z
b1110 k
b1110 3
b1110 |
b1110 d
b1110 -
b1110 {
b1110 c
b1110 .
b1110 j
b1110 4
b1000100010001 q
b1000100010001 =
b10100 W
b1011011001100110101101100110011010100111001100111011011100110011 G
b10100 6
b10100 ]
1J
b1011011001100110 L
b1011011001100110 )
b1011011001100110 Z
1'
#320
0'
#330
b10101 W
b10101 6
b10101 ]
0J
b1110 _
b1110 #
b1110 w
b1100110 ^
b1011011001100110 b
b1011011001100110 *
b1011011001100110 z
b100010001000100010001 q
b100010001000100010001 =
b1110 ("
b1110 &"
b1100110 ""
b1100110 !"
b1100110 !
b1100110 X
b110 }
b110 $
b110 Y
b110 ~
b10100 E
b1011011001100110 C
1'
#340
0'
#350
b10100111001100111011011100110011 F
b10101 E
b110011001100110 ""
b110011001100110 !"
b110011001100110 !
b110011001100110 X
b1100110 _
b1100110 #
b1100110 w
b1100110 ^
b10001000100010001000100010001 q
b10001000100010001000100010001 =
b10110 W
b1010011100110011101101110011001110110111001100111011011100110011 G
b10110 6
b10110 ]
1J
1'
#360
0'
#370
b10111 W
b10111 6
b10111 ]
b11 S
b11 /
b11 [
b11 V
b11 5
b11 \
0J
b1010011100110011 L
b1010011100110011 )
b1010011100110011 Z
b110011001100110 _
b110011001100110 #
b110011001100110 w
b1100110 ^
b1100110 k
b1100110 3
b1100110 |
b1100110 d
b1100110 -
b1100110 {
b1100110 c
b1100110 .
b1100110 j
b1100110 4
b1100110 l
b1100110 8
b11001100110011001100110 ""
b11001100110011001100110 !"
b11001100110011001100110 !
b11001100110011001100110 X
b10110 E
1'
#380
0'
#390
b10110111001100111011011100110011 F
b10111 E
b1010011100110011 C
b1100110 ("
b1100110 &"
b1100110011001100110011001100110 ""
b1100110011001100110011001100110 !"
b1100110011001100110011001100110 !
b1100110011001100110011001100110 X
b110011 ^
b110011 "
b110011 v
b111 `
b111 %
b111 x
b1010011100110011 b
b1010011100110011 *
b1010011100110011 z
b0 k
b0 3
b0 |
b0 d
b0 -
b0 {
b0 c
b0 .
b0 j
b0 4
b110011001100110 l
b110011001100110 8
b11000 W
b1011011100110011101101110011001100101001011001111010101001010101 G
b11000 6
b11000 ]
1J
b1011011100110011 L
b1011011100110011 )
b1011011100110011 Z
1'
#400
0'
#410
b11001 W
b11001 6
b11001 ]
0J
b0 _
b0 #
b0 w
b110011 ^
b1011011100110011 b
b1011011100110011 *
b1011011100110011 z
b11001100110011001100110 l
b11001100110011001100110 8
b0 ("
b0 &"
b110011 ""
b110011 !"
b110011 !
b110011 X
b111 }
b111 $
b111 Y
b111 ~
b11000 E
b1011011100110011 C
1'
#420
0'
#430
b101001011001111010101001010101 F
b11001 E
b11001100110011 ""
b11001100110011 !"
b11001100110011 !
b11001100110011 X
b110011 _
b110011 #
b110011 w
b110011 ^
b1100110011001100110011001100110 l
b1100110011001100110011001100110 8
b11010 W
b10100101100111101010100101010110111010010101011011101001010101 G
b11010 6
b11010 ]
1J
1'
#440
0'
#450
b11011 W
b11011 6
b11011 ]
b101 S
b101 /
b101 [
b101 V
b101 5
b101 \
0J
b10100101100111 L
b10100101100111 )
b10100101100111 Z
b11001100110011 _
b11001100110011 #
b11001100110011 w
b110011 ^
b110011 m
b110011 9
b1100110011001100110011 ""
b1100110011001100110011 !"
b1100110011001100110011 !
b1100110011001100110011 X
b11010 E
1'
#460
0'
#470
b10111010010101011011101001010101 F
b11011 E
b10100101100111 C
b110011001100110011001100110011 ""
b110011001100110011001100110011 !"
b110011001100110011001100110011 !
b110011001100110011001100110011 X
b1100110011001100110011 _
b1100110011001100110011 #
b1100110011001100110011 w
b1100110011001100110011001100110 ^
b1100110011001100110011001100110 "
b1100110011001100110011001100110 v
b1001 `
b1001 %
b1001 x
b10100101100111 b
b10100101100111 *
b10100101100111 z
b11001100110011 m
b11001100110011 9
b11100 W
b1011101001010101101110100101010110111010010101011010110000100011 G
b11100 6
b11100 ]
1J
b1010101001010101 L
b1010101001010101 )
b1010101001010101 Z
1'
#480
0'
#490
b11101 W
b11101 6
b11101 ]
0J
b1011101001010101 L
b1011101001010101 )
b1011101001010101 Z
b1100110011001100110011001010101 ^
b1100110011001100110011001010101 "
b1100110011001100110011001010101 v
b1010 `
b1010 %
b1010 x
b1010101001010101 b
b1010101001010101 *
b1010101001010101 z
b1100110011001100110011 m
b1100110011001100110011 9
b1010101010101010101010101010101 ""
b1010101010101010101010101010101 !"
b1010101010101010101010101010101 !
b1010101010101010101010101010101 X
b1001 }
b1001 $
b1001 Y
b1001 ~
b11100 E
b1010101001010101 C
1'
#500
0'
#510
b10111010010101011010110000100011 F
b11101 E
b1011101001010101 C
b1010101 ""
b1010101 !"
b1010101 !
b1010101 X
b1010 }
b1010 $
b1010 Y
b1010 ~
b1001 _
b1001 #
b1001 w
b1100110011001100110011001010101 ^
b1011101001010101 b
b1011101001010101 *
b1011101001010101 z
b110011001100110011001100110011 m
b110011001100110011001100110011 9
b11110 W
b1011101001010101101011000010001100101011101010011111001010111100 G
b11110 6
b11110 ]
1J
1'
#520
0'
#530
b11111 W
b11111 6
b11111 ]
b11 S
b11 /
b11 [
b10 V
b10 5
b10 \
0J
b1010101 _
b1010101 #
b1010101 w
b1100110011001100110011001010101 ^
b1010101010101010101010101010101 o
b1010101010101010101010101010101 ;
b101010101010101 ""
b101010101010101 !"
b101010101010101 !
b101010101010101 X
b11110 E
1'
#540
0'
#550
b101011101010011111001010111100 F
b11111 E
b10101010101010101010101 ""
b10101010101010101010101 !"
b10101010101010101010101 !
b10101010101010101010101 X
b101010101010101 _
b101010101010101 #
b101010101010101 w
b1100110011001100110011001010101 ^
b1010101 p
b1010101 <
b100000 W
b10101110101001111100101011110011111111111111111010011000100110 G
b100000 6
b100000 ]
1J
b1010110000100011 L
b1010110000100011 )
b1010110000100011 Z
1'
#560
0'
#570
b100001 W
b100001 6
b100001 ]
b1100 S
b1100 /
b1100 [
b1011 V
b1011 5
b1011 \
0J
b10101110101001 L
b10101110101001 )
b10101110101001 Z
b1100110011001100110011000100011 ^
b1100110011001100110011000100011 "
b1100110011001100110011000100011 v
b1100 `
b1100 %
b1100 x
b1010110000100011 b
b1010110000100011 *
b1010110000100011 z
b101010101010101 p
b101010101010101 <
b1010101010101010101010101010101 ""
b1010101010101010101010101010101 !"
b1010101010101010101010101010101 !
b1010101010101010101010101010101 X
b100000 E
b1010110000100011 C
1'
#580
0'
#590
b11111111111111111010011000100110 F
b100001 E
b10101110101001 C
b100011 ""
b100011 !"
b100011 !
b100011 X
b1100 }
b1100 $
b1100 Y
b1100 ~
b1010101010101010101010101010101 _
b1010101010101010101010101010101 #
b1010101010101010101010101010101 w
b1010101010101010101010101010101 ^
b1010101010101010101010101010101 "
b1010101010101010101010101010101 v
b1011 `
b1011 %
b1011 x
b10101110101001 b
b10101110101001 *
b10101110101001 z
b1000100010001 d
b1000100010001 -
b1000100010001 {
b1000100010001 j
b1000100010001 4
b10101010101010101010101 p
b10101010101010101010101 <
b100010 W
b1111111111111111101001100010011011110010000001101111111111111111 G
b100010 6
b100010 ]
1J
b1111001010111100 L
b1111001010111100 )
b1111001010111100 Z
1'
#600
0'
#610
b100011 W
b100011 6
b100011 ]
b110 S
b110 /
b110 [
b10 V
b10 5
b10 \
0J
b1111111111111111 L
b1111111111111111 )
b1111111111111111 Z
b100011 _
b100011 #
b100011 w
b10001000100010001000100010001 ^
b10001000100010001000100010001 "
b10001000100010001000100010001 v
b1111001010111100 b
b1111001010111100 *
b1111001010111100 z
b1010101010101010101010101010101 p
b1010101010101010101010101010101 <
b1000100010001 &"
b0 ""
b0 !"
b0 !
b0 X
b1011 }
b1011 $
b1011 Y
b1011 ~
b100010 E
b1111001010111100 C
1'
#620
0'
#630
b0x F
b100011 E
b1111111111111111 C
1%"
1,
b100011 $"
b100011 +
b100011 H
0)"
0B
b1111111111111111 b
b1111111111111111 *
b1111111111111111 z
b110011001100110 k
b110011001100110 3
b110011001100110 |
b0 d
b0 -
b0 {
b110011001100110 c
b110011001100110 .
b0 j
b0 4
b100011 r
b100011 >
b100100 W
b1111001000000110111111111111111110101110011001101011111001100110 G
b100100 6
b100100 ]
1J
b1010011000100110 L
b1010011000100110 )
b1010011000100110 Z
1'
#640
0'
#650
b11111111111111111010011000100110 F
b100011 W
b1111111111111111101001100010011011110010000001101111111111111111 G
b100011 6
b100011 ]
b0x S
b0x /
b0x [
b0 V
b0 5
b0 \
0J
b0x L
b0x )
b0x Z
b110 `
b110 %
b110 x
b0 _
b0 #
b0 w
b0 ^
b0 "
b0 v
b0 b
b0 *
b0 z
b0 q
b0 =
b110011001100110 ("
b0 &"
0%"
0,
b100100 E
b1010011000100110 C
1D
1'
#660
0'
#670
b11110010000001101111111111111111 F
b100011 E
b0x C
0D
b110 }
b110 $
b110 Y
b110 ~
1)"
1B
bx _
bx #
bx w
b0 `
b0 %
b0 x
b0x b
b0x *
b0x z
bx k
bx 3
bx |
bx c
bx .
b100100 W
b1111001000000110111111111111111110101110011001101011111001100110 G
b100100 6
b100100 ]
b110 S
b110 /
b110 [
b10 V
b10 5
b10 \
1J
b1010011000100110 L
b1010011000100110 )
b1010011000100110 Z
1'
#680
0'
#690
b100101 W
b100101 6
b100101 ]
b1111 S
b1111 /
b1111 [
b1111 V
b1111 5
b1111 \
0J
b1111001000000110 L
b1111001000000110 )
b1111001000000110 Z
b100110 ^
b100110 "
b100110 v
b110 `
b110 %
b110 x
b1010011000100110 b
b1010011000100110 *
b1010011000100110 z
b110011001100110 k
b110011001100110 3
b110011001100110 |
b110011001100110 c
b110011001100110 .
bx ("
b0 }
b0 $
b0 Y
b0 ~
b100100 E
b1010011000100110 C
1'
#700
0'
#710
b10101110011001101011111001100110 F
b100101 E
b1111001000000110 C
b110011001100110 ("
b100110 ""
b100110 !"
b100110 !
b100110 X
b110 }
b110 $
b110 Y
b110 ~
b0 _
b0 #
b0 w
b0 ^
b0 "
b0 v
b1111001000000110 b
b1111001000000110 *
b1111001000000110 z
b1110 k
b1110 3
b1110 |
b1110 d
b1110 -
b1110 {
b1110 c
b1110 .
b1110 j
b1110 4
b0 l
b0 8
b100110 W
b1010111001100110101111100110011010111110011001101011111001100110 G
b100110 6
b100110 ]
1J
b1111111111111111 L
b1111111111111111 )
b1111111111111111 Z
1'
#720
0'
#730
b0x F
b100111 W
b100111 6
b100111 ]
b110 S
b110 /
b110 [
b110 V
b110 5
b110 \
0J
b1010111001100110 L
b1010111001100110 )
b1010111001100110 Z
b1111111111111111 b
b1111111111111111 *
b1111111111111111 z
b1110 ("
b1110 &"
1%"
1,
b100110 $"
b100110 +
b100110 H
0)"
0B
b100110 E
b1111111111111111 C
1'
#740
0'
#750
b10101110011001101011111001100110 F
b100111 E
b1010111001100110 C
1D
0%"
0,
b1110 `
b1110 %
b1110 x
b0 b
b0 *
b0 z
b100110 k
b100110 3
b100110 |
b100110 d
b100110 -
b100110 {
b100110 c
b100110 .
b100110 j
b100110 4
b100110 l
b100110 8
b100110 W
b100110 6
b100110 ]
b0x S
b0x /
b0x [
b0 V
b0 5
b0 \
1J
b0 L
b0 )
b0 Z
1'
#760
0'
#770
b100111 W
b100111 6
b100111 ]
b110 S
b110 /
b110 [
b110 V
b110 5
b110 \
0J
b1010111001100110 L
b1010111001100110 )
b1010111001100110 Z
b0 `
b0 %
b0 x
bx k
bx 3
bx |
b0 d
b0 -
b0 {
bx c
bx .
b0 j
b0 4
b100110 ("
b100110 &"
b0 ""
b0 !"
b0 !
b0 X
b1110 }
b1110 $
b1110 Y
b1110 ~
1)"
1B
b100110 E
b0 C
0D
1'
#780
0'
#790
b10111110011001101011111001100110 F
b100111 E
b1010111001100110 C
bx ("
b0 &"
b0 }
b0 $
b0 Y
b0 ~
b1100110 ^
b1100110 "
b1100110 v
b1110 `
b1110 %
b1110 x
b1010111001100110 b
b1010111001100110 *
b1010111001100110 z
b100110 k
b100110 3
b100110 |
b100110 d
b100110 -
b100110 {
b100110 c
b100110 .
b100110 j
b100110 4
b101000 W
b1011111001100110101111100110011010101111001100111011111100110011 G
b101000 6
b101000 ]
1J
b1011111001100110 L
b1011111001100110 )
b1011111001100110 Z
1'
#800
0'
#810
b101001 W
b101001 6
b101001 ]
0J
b1100110 ^
b1011111001100110 b
b1011111001100110 *
b1011111001100110 z
b0 t
b0 @
b100110 ("
b100110 &"
b1100110 ""
b1100110 !"
b1100110 !
b1100110 X
b1110 }
b1110 $
b1110 Y
b1110 ~
b101000 E
b1011111001100110 C
1'
#820
0'
#830
b10101111001100111011111100110011 F
b101001 E
b110011001100110 ""
b110011001100110 !"
b110011001100110 !
b110011001100110 X
b1100110 _
b1100110 #
b1100110 w
b1100110 ^
b101010 W
b1010111100110011101111110011001110111111001100111011111100110011 G
b101010 6
b101010 ]
1J
1'
#840
0'
#850
b101011 W
b101011 6
b101011 ]
b11 S
b11 /
b11 [
b11 V
b11 5
b11 \
0J
b1010111100110011 L
b1010111100110011 )
b1010111100110011 Z
b110011001100110 _
b110011001100110 #
b110011001100110 w
b1100110 ^
b1100110 t
b1100110 @
b11001100110011001100110 ""
b11001100110011001100110 !"
b11001100110011001100110 !
b11001100110011001100110 X
b101010 E
1'
#860
0'
#870
b10111111001100111011111100110011 F
b101011 E
b1010111100110011 C
b1100110011001100110011001100110 ""
b1100110011001100110011001100110 !"
b1100110011001100110011001100110 !
b1100110011001100110011001100110 X
b110011 ^
b110011 "
b110011 v
b1111 `
b1111 %
b1111 x
b1010111100110011 b
b1010111100110011 *
b1010111100110011 z
b0 k
b0 3
b0 |
b0 d
b0 -
b0 {
b0 c
b0 .
b0 j
b0 4
b110011001100110 t
b110011001100110 @
b101100 W
b1011111100110011101111110011001101001101111011111010011010011001 G
b101100 6
b101100 ]
1J
b1011111100110011 L
b1011111100110011 )
b1011111100110011 Z
1'
#880
0'
#890
b101101 W
b101101 6
b101101 ]
0J
b1110 _
b1110 #
b1110 w
b110011 ^
b1011111100110011 b
b1011111100110011 *
b1011111100110011 z
b11001100110011001100110 t
b11001100110011001100110 @
b0 ("
b0 &"
b110011 ""
b110011 !"
b110011 !
b110011 X
b1111 }
b1111 $
b1111 Y
b1111 ~
b101100 E
b1011111100110011 C
1'
#900
0'
#910
b1001101111011111010011010011001 F
b101101 E
b11001100110011 ""
b11001100110011 !"
b11001100110011 !
b11001100110011 X
b110011 _
b110011 #
b110011 w
b110011 ^
b1100110011001100110011001100110 t
b1100110011001100110011001100110 @
b101110 W
b100110111101111101001101001100110110110100110011011011010011001 G
b101110 6
b101110 ]
1J
1'
#920
0'
#930
b101111 W
b101111 6
b101111 ]
b1001 S
b1001 /
b1001 [
b1001 V
b1001 5
b1001 \
0J
b100110111101111 L
b100110111101111 )
b100110111101111 Z
b11001100110011 _
b11001100110011 #
b11001100110011 w
b110011 ^
b110011 u
b110011 A
b1100110011001100110011 ""
b1100110011001100110011 !"
b1100110011001100110011 !
b1100110011001100110011 X
b101110 E
1'
#940
0'
#950
b10110110100110011011011010011001 F
b101111 E
b100110111101111 C
b110011001100110011001100110011 ""
b110011001100110011001100110011 !"
b110011001100110011001100110011 !
b110011001100110011001100110011 X
b1100110011001100110011 _
b1100110011001100110011 #
b1100110011001100110011 w
b1100110011001100110011001100110 ^
b1100110011001100110011001100110 "
b1100110011001100110011001100110 v
b1101 `
b1101 %
b1101 x
b100110111101111 b
b100110111101111 *
b100110111101111 z
b101010101010101 k
b101010101010101 3
b101010101010101 |
b101010101010101 d
b101010101010101 -
b101010101010101 {
b101010101010101 c
b101010101010101 .
b101010101010101 j
b101010101010101 4
b11001100110011 u
b11001100110011 A
b110000 W
b1011011010011001101101101001100110110110100110011010011100110111 G
b110000 6
b110000 ]
1J
b1010011010011001 L
b1010011010011001 )
b1010011010011001 Z
1'
#960
0'
#970
b110001 W
b110001 6
b110001 ]
0J
b1011011010011001 L
b1011011010011001 )
b1011011010011001 Z
b1100110011001100110011010011001 ^
b1100110011001100110011010011001 "
b1100110011001100110011010011001 v
b110 `
b110 %
b110 x
b1010011010011001 b
b1010011010011001 *
b1010011010011001 z
b1100110011001100110011 u
b1100110011001100110011 A
b101010101010101 ("
b101010101010101 &"
b10011001100110011001100110011001 ""
b10011001100110011001100110011001 !"
b10011001100110011001100110011001 !
b10011001100110011001100110011001 X
b1101 }
b1101 $
b1101 Y
b1101 ~
b110000 E
b1010011010011001 C
1'
#980
0'
