dumpfile.vcd
$date
	Sun Dec 11 19:46:59 2016
$end
$version
	Icarus Verilog
$end
$timescale
	1s
$end
$scope module testbench $end
$scope module p1 $end
$var wire 32 ! ALU_out [31:0] $end
$var wire 32 " ALU_source1 [31:0] $end
$var wire 32 # ALU_source2 [31:0] $end
$var wire 4 $ ALUdest [3:0] $end
$var wire 4 % D [3:0] $end
$var wire 4 & P [3:0] $end
$var wire 1 ' clk $end
$var wire 1 ( halt $end
$var wire 16 ) ir_conn [15:0] $end
$var wire 16 * ir_conn2 [15:0] $end
$var wire 32 + jump_addr [31:0] $end
$var wire 1 , jump_taken $end
$var wire 16 - parallel_addr__reg_to_alu [15:0] $end
$var wire 16 . parallel_addr_mon [15:0] $end
$var wire 4 / parallel_addr_reg__inst_to_reg [3:0] $end
$var wire 1 0 parallel_store_en__inst_to_reg $end
$var wire 1 1 parallel_store_en__reg_to_alu $end
$var wire 1 2 parallel_store_mon $end
$var wire 16 3 parallel_val__reg_to_alu [15:0] $end
$var wire 16 4 parallel_val_mon [15:0] $end
$var wire 4 5 parallel_val_reg__inst_to_reg [3:0] $end
$var wire 16 6 pc [15:0] $end
$var wire 1 7 reset $end
$var wire 32 8 u0 [31:0] $end
$var wire 32 9 u1 [31:0] $end
$var wire 32 : u2 [31:0] $end
$var wire 32 ; u3 [31:0] $end
$var wire 32 < u4 [31:0] $end
$var wire 32 = u5 [31:0] $end
$var wire 32 > u6 [31:0] $end
$var wire 32 ? u7 [31:0] $end
$var wire 32 @ u8 [31:0] $end
$var wire 32 A u9 [31:0] $end
$var wire 1 B write_en $end
$var reg 16 C ir [15:0] $end
$var reg 1 D jump $end
$var reg 16 E pc_mon [15:0] $end
$scope module ib $end
$var wire 1 ' clk $end
$var wire 32 F ir32 [31:0] $end
$var wire 32 G jump_addr [31:0] $end
$var wire 1 , jump_taken $end
$var wire 1 H mainmen $end
$var wire 1 7 reset $end
$var reg 1 I high_or_low_instruction $end
$var integer 32 J idx [31:0] $end
$var reg 16 K ir [15:0] $end
$var reg 1 L jump_flag $end
$var reg 1 M jump_type $end
$var reg 4 N parallel_addr_reg [3:0] $end
$var reg 1 O parallel_store_en $end
$var reg 1 P parallel_store_en_buf $end
$var reg 4 Q parallel_val_reg [3:0] $end
$var reg 16 R pc [15:0] $end
$upscope $end
$scope module rb $end
$var wire 32 S ALU_in [31:0] $end
$var wire 4 T ALUdest [3:0] $end
$var wire 1 ' clk $end
$var wire 16 U ir_in [15:0] $end
$var wire 1 , jump_taken $end
$var wire 4 V parallel_addr_reg_in [3:0] $end
$var wire 1 0 parallel_store_en_in $end
$var wire 4 W parallel_val_reg_in [3:0] $end
$var wire 16 X pc [15:0] $end
$var wire 1 7 reset $end
$var wire 1 B write_en $end
$var reg 32 Y ALU_source1 [31:0] $end
$var reg 32 Z ALU_source2 [31:0] $end
$var reg 4 [ D [3:0] $end
$var reg 4 \ P [3:0] $end
$var reg 16 ] ir_in2 [15:0] $end
$var reg 16 ^ parallel_addr_mon [15:0] $end
$var reg 16 _ parallel_addr_out [15:0] $end
$var reg 16 ` parallel_addr_reg_buf [15:0] $end
$var reg 1 a parallel_store_en_buf $end
$var reg 1 b parallel_store_en_out $end
$var reg 1 c parallel_store_mon $end
$var reg 16 d parallel_val_buf [15:0] $end
$var reg 16 e parallel_val_mon [15:0] $end
$var reg 16 f parallel_val_out [15:0] $end
$var reg 32 g u0 [31:0] $end
$var reg 32 h u1 [31:0] $end
$var reg 32 i u2 [31:0] $end
$var reg 32 j u3 [31:0] $end
$var reg 32 k u4 [31:0] $end
$var reg 32 l u5 [31:0] $end
$var reg 32 m u6 [31:0] $end
$var reg 32 n u7 [31:0] $end
$var reg 32 o u8 [31:0] $end
$var reg 32 p u9 [31:0] $end
$upscope $end
$scope module ab $end
$var wire 32 q ALU_source1 [31:0] $end
$var wire 32 r ALU_source2 [31:0] $end
$var wire 4 s D [3:0] $end
$var wire 4 t P [3:0] $end
$var wire 1 ' clk $end
$var wire 16 u ir_in2 [15:0] $end
$var wire 16 v parallel_addr [15:0] $end
$var wire 1 1 parallel_store_en $end
$var wire 16 w parallel_val [15:0] $end
$var wire 1 7 reset $end
$var reg 4 x ALUdest [3:0] $end
$var reg 4 y ALUdest_buff [3:0] $end
$var reg 32 z ALUout [31:0] $end
$var reg 32 { ALUout_buff [31:0] $end
$var reg 1 | halt $end
$var reg 32 } jump_addr [31:0] $end
$var reg 1 ~ jump_taken $end
$var reg 16 !" parallel_addr_buf [15:0] $end
$var reg 1 "" parallel_store_en_buf $end
$var reg 16 #" parallel_val_buf [15:0] $end
$var reg 1 $" write_en $end
$upscope $end
$upscope $end
$upscope $end
$enddefinitions $end
#0
$dumpvars
0$"
b0 #"
0""
b0 !"
0~
b0 }
0|
b0 {
b0 z
b0 y
b0 x
b0 w
b0 v
bx u
bx t
bx s
b0 r
b0 q
bx p
bx o
bx n
bx m
bx l
bx k
bx j
bx i
bx h
bx g
b0 f
bx e
b0 d
xc
0b
0a
b0 `
b0 _
bx ^
bx ]
bx \
bx [
b0 Z
b0 Y
b0 X
b0 W
b0 V
b10100101100111 U
b0 T
b0 S
b0 R
b0 Q
0P
0O
b0 N
xM
xL
b10100101100111 K
b10000000000000000 J
0I
zH
b0 G
b101001011001111111000011111010 F
bx E
xD
bx C
0B
bx A
bx @
bx ?
bx >
bx =
bx <
bx ;
bx :
bx 9
bx 8
07
b0 6
b0 5
bx 4
b0 3
x2
01
00
b0 /
bx .
b0 -
0,
b0 +
bx *
b10100101100111 )
0(
0'
bx &
bx %
b0 $
b0 #
b0 "
b0 !
$end
#1
b10000000000000000 J
17
#10
b11100110101000000000100101101000 F
1I
b10 R
b10 6
b10 X
b1010 N
b1010 /
b1010 V
b1111 Q
b1111 5
b1111 W
1O
10
b1001 [
b1001 %
b1001 s
b10100101100111 ]
b10100101100111 *
b10100101100111 u
b0 ^
b0 .
b0 e
b0 4
0c
02
b1110 p
b1110 A
b0 o
b0 @
b0 n
b0 ?
b0 m
b0 >
b0 l
b0 =
b1001 k
b1001 <
b0 j
b0 ;
b0 i
b0 :
b0 h
b0 9
b0 g
b0 8
bx x
bx $
bx T
bx y
1$"
1B
b0 E
b10100101100111 C
0D
1'
#20
0'
#30
b10 E
b1001 x
b1001 $
b1001 T
b1001 y
1b
11
b1001 f
b1001 3
b1001 w
b1110 _
b1110 -
b1110 v
b1001 ^
b1001 .
b1110 e
b1110 4
1c
12
0I
b11 R
b11 6
b11 X
b1000 N
b1000 /
b1000 V
b110 Q
b110 5
b110 W
b1110011010100000 K
b1110011010100000 )
b1110011010100000 U
0O
00
1'
#40
0'
#50
b11110000011110110000100101100111 F
1I
b100 R
b100 6
b100 X
b100101101000 K
b100101101000 )
b100101101000 U
b1001 Y
b1001 "
b1001 q
b110 [
b110 %
b110 s
0b
01
b1110011010100000 ]
b1110011010100000 *
b1110011010100000 u
b0 f
b0 3
b0 w
b0 _
b0 -
b0 v
b0 ^
b0 .
b0 e
b0 4
0c
02
b1001 #"
b1110 !"
1""
b11 E
b1110011010100000 C
1'
#60
0'
#70
b100 E
b100101101000 C
b0 #"
b0 !"
0""
b110 x
b110 $
b110 T
b110 y
b0 Y
b0 "
b0 q
b1001 [
b1001 %
b1001 s
b100101101000 ]
b100101101000 *
b100101101000 u
0I
b101 R
b101 6
b101 X
b111 N
b111 /
b111 V
b1111000001111011 K
b1111000001111011 )
b1111000001111011 U
1'
#80
0'
#90
b11110000011110111010101100010001 F
1I
b110 R
b110 6
b110 X
b100101100111 K
b100101100111 )
b100101100111 U
b1111000001111011 ]
b1111000001111011 *
b1111000001111011 u
b1001 x
b1001 $
b1001 T
b1001 y
b101 E
b1111000001111011 C
1'
#100
0'
#110
b110 E
b100101100111 C
0$"
0B
b100101100111 ]
b100101100111 *
b100101100111 u
0I
b111 R
b111 6
b111 X
b1 N
b1 /
b1 V
b1 Q
b1 5
b1 W
b1111000001111011 K
b1111000001111011 )
b1111000001111011 U
1'
#120
0'
#130
b10111011000100011011101100010001 F
1I
b1000 R
b1000 6
b1000 X
b1010101100010001 K
b1010101100010001 )
b1010101100010001 U
b1111000001111011 ]
b1111000001111011 *
b1111000001111011 u
1$"
1B
b111 E
b1111000001111011 C
1'
#140
0'
#150
b1000 E
b1010101100010001 C
0$"
0B
b10001 Y
b10001 "
b10001 q
b1011 [
b1011 %
b1011 s
b1010101100010001 ]
b1010101100010001 *
b1010101100010001 u
0I
b1001 R
b1001 6
b1001 X
b1011101100010001 K
b1011101100010001 )
b1011101100010001 U
1'
#160
0'
#170
b10111011000100011010011001100110 F
1I
b1010 R
b1010 6
b1010 X
b10001 Y
b1011101100010001 ]
b1011101100010001 *
b1011101100010001 u
b10001 {
b10001 z
b10001 !
b10001 S
b1011 x
b1011 $
b1011 T
b1011 y
1$"
1B
b1001 E
b1011101100010001 C
1'
#180
0'
#190
b1010 E
b1000100010001 {
b1000100010001 z
b1000100010001 !
b1000100010001 S
b10001 Z
b10001 #
b10001 r
b10001 Y
0I
b1011 R
b1011 6
b1011 X
b110 N
b110 /
b110 V
b110 Q
b110 5
b110 W
1'
#200
0'
#210
b10110110011001101011011001100110 F
1I
b1100 R
b1100 6
b1100 X
b1010011001100110 K
b1010011001100110 )
b1010011001100110 U
b1000100010001 Z
b1000100010001 #
b1000100010001 r
b10001 Y
b10001 l
b10001 =
b100010001000100010001 {
b100010001000100010001 z
b100010001000100010001 !
b100010001000100010001 S
b1011 E
1'
#220
0'
#230
b1100 E
b1010011001100110 C
b10001000100010001000100010001 {
b10001000100010001000100010001 z
b10001000100010001000100010001 !
b10001000100010001000100010001 S
b1100110 Y
b1100110 "
b1100110 q
b110 [
b110 %
b110 s
b1010011001100110 ]
b1010011001100110 *
b1010011001100110 u
b1000100010001 l
b1000100010001 =
0I
b1101 R
b1101 6
b1101 X
b1011011001100110 K
b1011011001100110 )
b1011011001100110 U
1'
#240
0'
#250
b10110110011001101010011100110011 F
1I
b1110 R
b1110 6
b1110 X
b0 Z
b0 #
b0 r
b1100110 Y
b1011011001100110 ]
b1011011001100110 *
b1011011001100110 u
b100010001000100010001 l
b100010001000100010001 =
b1100110 {
b1100110 z
b1100110 !
b1100110 S
b110 x
b110 $
b110 T
b110 y
b1101 E
b1011011001100110 C
1'
#260
0'
#270
b1110 E
b110011001100110 {
b110011001100110 z
b110011001100110 !
b110011001100110 S
b1100110 Z
b1100110 #
b1100110 r
b1100110 Y
b10001000100010001000100010001 l
b10001000100010001000100010001 =
0I
b1111 R
b1111 6
b1111 X
b11 N
b11 /
b11 V
b11 Q
b11 5
b11 W
1'
#280
0'
#290
b10110111001100111011011100110011 F
1I
b10000 R
b10000 6
b10000 X
b1010011100110011 K
b1010011100110011 )
b1010011100110011 U
b110011001100110 Z
b110011001100110 #
b110011001100110 r
b1100110 Y
b1100110 g
b1100110 8
b11001100110011001100110 {
b11001100110011001100110 z
b11001100110011001100110 !
b11001100110011001100110 S
b1111 E
1'
#300
0'
#310
b10000 E
b1010011100110011 C
b1100110011001100110011001100110 {
b1100110011001100110011001100110 z
b1100110011001100110011001100110 !
b1100110011001100110011001100110 S
b110011 Y
b110011 "
b110011 q
b111 [
b111 %
b111 s
b1010011100110011 ]
b1010011100110011 *
b1010011100110011 u
b110011001100110 g
b110011001100110 8
0I
b10001 R
b10001 6
b10001 X
b1011011100110011 K
b1011011100110011 )
b1011011100110011 U
1'
#320
0'
#330
b10110111001100110010100101100111 F
1I
b10010 R
b10010 6
b10010 X
b0 Z
b0 #
b0 r
b110011 Y
b1011011100110011 ]
b1011011100110011 *
b1011011100110011 u
b11001100110011001100110 g
b11001100110011001100110 8
b110011 {
b110011 z
b110011 !
b110011 S
b111 x
b111 $
b111 T
b111 y
b10001 E
b1011011100110011 C
1'
#340
0'
#350
b10010 E
b11001100110011 {
b11001100110011 z
b11001100110011 !
b11001100110011 S
b110011 Z
b110011 #
b110011 r
b110011 Y
b1100110011001100110011001100110 g
b1100110011001100110011001100110 8
0I
b10011 R
b10011 6
b10011 X
b111 N
b111 /
b111 V
b110 Q
b110 5
b110 W
1'
#360
0'
#370
b10101010010101011011101001010101 F
1I
b10100 R
b10100 6
b10100 X
b10100101100111 K
b10100101100111 )
b10100101100111 U
b11001100110011 Z
b11001100110011 #
b11001100110011 r
b110011 Y
b110011 f
b110011 3
b110011 w
b110011001100110 _
b110011001100110 -
b110011001100110 v
b110011 ^
b110011 .
b110011001100110 e
b110011001100110 4
b110011 h
b110011 9
b1100110011001100110011 {
b1100110011001100110011 z
b1100110011001100110011 !
b1100110011001100110011 S
b10011 E
1'
#380
0'
#390
b10100 E
b10100101100111 C
b110011001100110011001100110011 {
b110011001100110011001100110011 z
b110011001100110011001100110011 !
b110011001100110011001100110011 S
b110011 #"
b110011001100110 !"
b1100110011001100110011 Z
b1100110011001100110011 #
b1100110011001100110011 r
b1100110011001100110011001100110 Y
b1100110011001100110011001100110 "
b1100110011001100110011001100110 q
b1001 [
b1001 %
b1001 s
b10100101100111 ]
b10100101100111 *
b10100101100111 u
b11001100110011 f
b11001100110011 3
b11001100110011 w
b11001100110011 ^
b11001100110011 .
b11001100110011 h
b11001100110011 9
0I
b10101 R
b10101 6
b10101 X
b101 N
b101 /
b101 V
b101 Q
b101 5
b101 W
b1010101001010101 K
b1010101001010101 )
b1010101001010101 U
1'
#400
0'
#410
b10111010010101011011101001010101 F
1I
b10110 R
b10110 6
b10110 X
b1011101001010101 K
b1011101001010101 )
b1011101001010101 U
b1100110011001100110011001010101 Y
b1100110011001100110011001010101 "
b1100110011001100110011001010101 q
b1010 [
b1010 %
b1010 s
b1010101001010101 ]
b1010101001010101 *
b1010101001010101 u
b0 f
b0 3
b0 w
b0 _
b0 -
b0 v
b0 ^
b0 .
b0 e
b0 4
b1100110011001100110011 h
b1100110011001100110011 9
b1010101010101010101010101010101 {
b1010101010101010101010101010101 z
b1010101010101010101010101010101 !
b1010101010101010101010101010101 S
b11001100110011 #"
b1001 x
b1001 $
b1001 T
b1001 y
b10101 E
b1010101001010101 C
1'
#420
0'
#430
b10110 E
b1011101001010101 C
b1010101 {
b1010101 z
b1010101 !
b1010101 S
b0 #"
b0 !"
b1010 x
b1010 $
b1010 T
b1010 y
b1001 Z
b1001 #
b1001 r
b1100110011001100110011001010101 Y
b1011101001010101 ]
b1011101001010101 *
b1011101001010101 u
b110011001100110011001100110011 h
b110011001100110011001100110011 9
0I
b10111 R
b10111 6
b10111 X
1'
#440
0'
#450
b10101100000111000010101110101001 F
1I
b11000 R
b11000 6
b11000 X
b1010101 Z
b1010101 #
b1010101 r
b1100110011001100110011001010101 Y
b1010101010101010101010101010101 j
b1010101010101010101010101010101 ;
b101010101010101 {
b101010101010101 z
b101010101010101 !
b101010101010101 S
b10111 E
1'
#460
0'
#470
b11000 E
b10101010101010101010101 {
b10101010101010101010101 z
b10101010101010101010101 !
b10101010101010101010101 S
b101010101010101 Z
b101010101010101 #
b101010101010101 r
b1100110011001100110011001010101 Y
b1010101 k
b1010101 <
0I
b11001 R
b11001 6
b11001 X
b1001 N
b1001 /
b1001 V
b1010 Q
b1010 5
b1010 W
b1010110000011100 K
b1010110000011100 )
b1010110000011100 U
1'
#480
0'
#490
b11110010101111001111111111111111 F
1I
b11010 R
b11010 6
b11010 X
b10101110101001 K
b10101110101001 )
b10101110101001 U
b1100110011001100110011000011100 Y
b1100110011001100110011000011100 "
b1100110011001100110011000011100 q
b1100 [
b1100 %
b1100 s
b1010110000011100 ]
b1010110000011100 *
b1010110000011100 u
b101010101010101 f
b101010101010101 3
b101010101010101 w
b101010101010101 _
b101010101010101 -
b101010101010101 v
b101010101010101 ^
b101010101010101 .
b101010101010101 e
b101010101010101 4
b101010101010101 k
b101010101010101 <
b1010101010101010101010101010101 {
b1010101010101010101010101010101 z
b1010101010101010101010101010101 !
b1010101010101010101010101010101 S
b11001 E
b1010110000011100 C
1'
#500
0'
#510
b11010 E
b10101110101001 C
b11100 {
b11100 z
b11100 !
b11100 S
b101010101010101 #"
b101010101010101 !"
b1100 x
b1100 $
b1100 T
b1100 y
b1010101010101010101010101010101 Z
b1010101010101010101010101010101 #
b1010101010101010101010101010101 r
b1010101010101010101010101010101 Y
b1010101010101010101010101010101 "
b1010101010101010101010101010101 q
b1011 [
b1011 %
b1011 s
b10101110101001 ]
b10101110101001 *
b10101110101001 u
b10101010101010101010101 k
b10101010101010101010101 <
0I
b11011 R
b11011 6
b11011 X
b1111 N
b1111 /
b1111 V
b1111 Q
b1111 5
b1111 W
b1111001010111100 K
b1111001010111100 )
b1111001010111100 U
1'
#520
0'
#530
b10100110000111111111001000000110 F
1I
b11100 R
b11100 6
b11100 X
b1111111111111111 K
b1111111111111111 )
b1111111111111111 U
b11100 Z
b11100 #
b11100 r
b10001000100010001000100010001 Y
b10001000100010001000100010001 "
b10001000100010001000100010001 q
b1111001010111100 ]
b1111001010111100 *
b1111001010111100 u
b1110 f
b1110 3
b1110 w
b1110 _
b1110 -
b1110 v
b1110 ^
b1110 .
b1110 e
b1110 4
b1010101010101010101010101010101 k
b1010101010101010101010101010101 <
b0 {
b0 z
b0 !
b0 S
b1011 x
b1011 $
b1011 T
b1011 y
b11011 E
b1111001010111100 C
1'
#540
0'
#550
b0x F
b11100 E
b1111111111111111 C
1~
1,
b11100 }
b11100 +
b11100 G
b1110 #"
b1110 !"
0$"
0B
b1111111111111111 ]
b1111111111111111 *
b1111111111111111 u
b11100 m
b11100 >
0I
b11101 R
b11101 6
b11101 X
b110 N
b110 /
b110 V
b0 Q
b0 5
b0 W
b1010011000011111 K
b1010011000011111 )
b1010011000011111 U
1'
#560
0'
#570
b10100110000111111111001000000110 F
1I
b11100 R
b11100 6
b11100 X
b0x N
b0x /
b0x V
b0 K
b0 )
b0 U
b110 [
b110 %
b110 s
b0 Z
b0 #
b0 r
b0 Y
b0 "
b0 q
b0 ]
b0 *
b0 u
b110011001100110 f
b110011001100110 3
b110011001100110 w
b0 _
b0 -
b0 v
b110011001100110 ^
b110011001100110 .
b0 e
b0 4
b0 l
b0 =
0~
0,
b11101 E
b1010011000011111 C
1D
1'
#580
0'
#590
b11100 E
b0 C
0D
b110011001100110 #"
b0 !"
b110 x
b110 $
b110 T
b110 y
1$"
1B
b0 [
b0 %
b0 s
bx f
bx 3
bx w
bx ^
bx .
0I
b11101 R
b11101 6
b11101 X
b110 N
b110 /
b110 V
b1010011000011111 K
b1010011000011111 )
b1010011000011111 U
1'
#600
0'
#610
b11111111111111111010111001100110 F
1I
b11110 R
b11110 6
b11110 X
b1111001000000110 K
b1111001000000110 )
b1111001000000110 U
b11111 Y
b11111 "
b11111 q
b110 [
b110 %
b110 s
b1010011000011111 ]
b1010011000011111 *
b1010011000011111 u
b110011001100110 f
b110011001100110 3
b110011001100110 w
b110011001100110 ^
b110011001100110 .
bx #"
b0 x
b0 $
b0 T
b0 y
b11101 E
b1010011000011111 C
1'
#620
0'
#630
b11110 E
b1111001000000110 C
b11111 {
b11111 z
b11111 !
b11111 S
b110011001100110 #"
b110 x
b110 $
b110 T
b110 y
b0 Y
b0 "
b0 q
b1111001000000110 ]
b1111001000000110 *
b1111001000000110 u
b0 f
b0 3
b0 w
b0 ^
b0 .
b0 g
b0 8
0I
b11111 R
b11111 6
b11111 X
b110 Q
b110 5
b110 W
b1111111111111111 K
b1111111111111111 )
b1111111111111111 U
1'
#640
0'
#650
b0x F
1I
b100000 R
b100000 6
b100000 X
b1010111001100110 K
b1010111001100110 )
b1010111001100110 U
b1111111111111111 ]
b1111111111111111 *
b1111111111111111 u
1~
1,
b11111 }
b11111 +
b11111 G
b0 #"
0$"
0B
b11111 E
b1111111111111111 C
1'
#660
0'
#670
b11111111111111111010111001100110 F
b100000 E
b1010111001100110 C
1D
0~
0,
b1110 [
b1110 %
b1110 s
b0 ]
b0 *
b0 u
b11111 f
b11111 3
b11111 w
b11111 _
b11111 -
b11111 v
b11111 ^
b11111 .
b11111 e
b11111 4
b11111 g
b11111 8
0I
b11111 R
b11111 6
b11111 X
b0x N
b0x /
b0x V
b0 Q
b0 5
b0 W
b0x K
b0x )
b0x U
1'
#680
0'
#690
b10111110011001101011111001100110 F
1I
b100000 R
b100000 6
b100000 X
b110 N
b110 /
b110 V
b110 Q
b110 5
b110 W
b1010111001100110 K
b1010111001100110 )
b1010111001100110 U
bx Z
bx #
bx r
b0 [
b0 %
b0 s
b0x ]
b0x *
b0x u
bx f
bx 3
bx w
b0 _
b0 -
b0 v
bx ^
bx .
b0 e
b0 4
b0 {
b0 z
b0 !
b0 S
b11111 #"
b11111 !"
b1110 x
b1110 $
b1110 T
b1110 y
1$"
1B
b11111 E
b0x C
0D
1'
#700
0'
#710
b100000 E
b1010111001100110 C
bx #"
b0 !"
b0 x
b0 $
b0 T
b0 y
b1100110 Y
b1100110 "
b1100110 q
b1110 [
b1110 %
b1110 s
b1010111001100110 ]
b1010111001100110 *
b1010111001100110 u
b11111 f
b11111 3
b11111 w
b11111 _
b11111 -
b11111 v
b11111 ^
b11111 .
b11111 e
b11111 4
0I
b100001 R
b100001 6
b100001 X
b1011111001100110 K
b1011111001100110 )
b1011111001100110 U
1'
#720
0'
#730
b10111110011001101010111100110011 F
1I
b100010 R
b100010 6
b100010 X
b0 Z
b0 #
b0 r
b1100110 Y
b1011111001100110 ]
b1011111001100110 *
b1011111001100110 u
b1100110 {
b1100110 z
b1100110 !
b1100110 S
b11111 #"
b11111 !"
b1110 x
b1110 $
b1110 T
b1110 y
b100001 E
b1011111001100110 C
1'
#740
0'
#750
b100010 E
b110011001100110 {
b110011001100110 z
b110011001100110 !
b110011001100110 S
b1100110 Z
b1100110 #
b1100110 r
b1100110 Y
0I
b100011 R
b100011 6
b100011 X
b11 N
b11 /
b11 V
b11 Q
b11 5
b11 W
1'
#760
0'
#770
b10111111001100111011111100110011 F
1I
b100100 R
b100100 6
b100100 X
b1010111100110011 K
b1010111100110011 )
b1010111100110011 U
b110011001100110 Z
b110011001100110 #
b110011001100110 r
b1100110 Y
b0 f
b0 3
b0 w
b0 _
b0 -
b0 v
b0 ^
b0 .
b0 e
b0 4
b1100110 o
b1100110 @
b11001100110011001100110 {
b11001100110011001100110 z
b11001100110011001100110 !
b11001100110011001100110 S
b100011 E
1'
#780
0'
#790
b100100 E
b1010111100110011 C
b1100110011001100110011001100110 {
b1100110011001100110011001100110 z
b1100110011001100110011001100110 !
b1100110011001100110011001100110 S
b0 #"
b0 !"
b110011 Y
b110011 "
b110011 q
b1111 [
b1111 %
b1111 s
b1010111100110011 ]
b1010111100110011 *
b1010111100110011 u
b110011001100110 o
b110011001100110 @
0I
b100101 R
b100101 6
b100101 X
b1011111100110011 K
b1011111100110011 )
b1011111100110011 U
1'
#800
0'
#810
b10111111001100110100110111101111 F
1I
b100110 R
b100110 6
b100110 X
b1110 Z
b1110 #
b1110 r
b110011 Y
b1011111100110011 ]
b1011111100110011 *
b1011111100110011 u
b11001100110011001100110 o
b11001100110011001100110 @
b110011 {
b110011 z
b110011 !
b110011 S
b1111 x
b1111 $
b1111 T
b1111 y
b100101 E
b1011111100110011 C
1'
#820
0'
#830
b100110 E
b11001100110011 {
b11001100110011 z
b11001100110011 !
b11001100110011 S
b110011 Z
b110011 #
b110011 r
b110011 Y
b1100110011001100110011001100110 o
b1100110011001100110011001100110 @
0I
b100111 R
b100111 6
b100111 X
b1111 N
b1111 /
b1111 V
b1110 Q
b1110 5
b1110 W
1'
#840
0'
#850
b10100110100110011011011010011001 F
1I
b101000 R
b101000 6
b101000 X
b100110111101111 K
b100110111101111 )
b100110111101111 U
b11001100110011 Z
b11001100110011 #
b11001100110011 r
b110011 Y
b110011 f
b110011 3
b110011 w
b110011001100110 _
b110011001100110 -
b110011001100110 v
b110011 ^
b110011 .
b110011001100110 e
b110011001100110 4
b110011 p
b110011 A
b1100110011001100110011 {
b1100110011001100110011 z
b1100110011001100110011 !
b1100110011001100110011 S
b100111 E
1'
#860
0'
#870
b101000 E
b100110111101111 C
b110011001100110011001100110011 {
b110011001100110011001100110011 z
b110011001100110011001100110011 !
b110011001100110011001100110011 S
b110011 #"
b110011001100110 !"
b1100110011001100110011 Z
b1100110011001100110011 #
b1100110011001100110011 r
b1100110011001100110011001100110 Y
b1100110011001100110011001100110 "
b1100110011001100110011001100110 q
b1101 [
b1101 %
b1101 s
b100110111101111 ]
b100110111101111 *
b100110111101111 u
b11001100110011 f
b11001100110011 3
b11001100110011 w
b11001100110011 ^
b11001100110011 .
b11001100110011 p
b11001100110011 A
0I
b101001 R
b101001 6
b101001 X
b1001 N
b1001 /
b1001 V
b1001 Q
b1001 5
b1001 W
b1010011010011001 K
b1010011010011001 )
b1010011010011001 U
1'
#880
0'
#890
b10110110100110011011011010011001 F
1I
b101010 R
b101010 6
b101010 X
b1011011010011001 K
b1011011010011001 )
b1011011010011001 U
b1100110011001100110011010011001 Y
b1100110011001100110011010011001 "
b1100110011001100110011010011001 q
b110 [
b110 %
b110 s
b1010011010011001 ]
b1010011010011001 *
b1010011010011001 u
b101010101010101 f
b101010101010101 3
b101010101010101 w
b101010101010101 _
b101010101010101 -
b101010101010101 v
b101010101010101 ^
b101010101010101 .
b101010101010101 e
b101010101010101 4
b1100110011001100110011 p
b1100110011001100110011 A
b10011001100110011001100110011001 {
b10011001100110011001100110011001 z
b10011001100110011001100110011001 !
b10011001100110011001100110011001 S
b11001100110011 #"
b1101 x
b1101 $
b1101 T
b1101 y
b101001 E
b1010011010011001 C
1'
#900
0'
#910
b101010 E
b1011011010011001 C
b11111111111111111111111110011001 {
b11111111111111111111111110011001 z
b11111111111111111111111110011001 !
b11111111111111111111111110011001 S
b101010101010101 #"
b101010101010101 !"
b110 x
b110 $
b110 T
b110 y
b11111 Z
b11111 #
b11111 r
b1100110011001100110011010011001 Y
b1011011010011001 ]
b1011011010011001 *
b1011011010011001 u
b110011001100110011001100110011 p
b110011001100110011001100110011 A
0I
b101011 R
b101011 6
b101011 X
1'
#920
0'
#930
b10100111001100000010101001101101 F
1I
b101100 R
b101100 6
b101100 X
b11111111111111111111111110011001 Z
b11111111111111111111111110011001 #
b11111111111111111111111110011001 r
b1100110011001100110011010011001 Y
b10011001100110011001100110011001 n
b10011001100110011001100110011001 ?
b11111111111111111001100110011001 {
b11111111111111111001100110011001 z
b11111111111111111001100110011001 !
b11111111111111111001100110011001 S
b101011 E
1'
#940
0'
#950
b101100 E
b11111111100110011001100110011001 {
b11111111100110011001100110011001 z
b11111111100110011001100110011001 !
b11111111100110011001100110011001 S
b11111111111111111001100110011001 Z
b11111111111111111001100110011001 #
b11111111111111111001100110011001 r
b1100110011001100110011010011001 Y
b11111111111111111111111110011001 g
b11111111111111111111111110011001 8
0I
b101101 R
b101101 6
b101101 X
b1101 N
b1101 /
b1101 V
b110 Q
b110 5
b110 W
b1010011100110000 K
b1010011100110000 )
b1010011100110000 U
1'
#960
0'
#970
b11110010101001111111111111111111 F
1I
b101110 R
b101110 6
b101110 X
b10101001101101 K
b10101001101101 )
b10101001101101 U
b1100110011001100110011000110000 Y
b1100110011001100110011000110000 "
b1100110011001100110011000110000 q
b111 [
b111 %
b111 s
b1010011100110000 ]
b1010011100110000 *
b1010011100110000 u
b1001100110011001 f
b1001100110011001 3
b1001100110011001 w
b1001100110011001 _
b1001100110011001 -
b1001100110011001 v
b1001100110011001 ^
b1001100110011001 .
b1001100110011001 e
b1001100110011001 4
b11111111111111111001100110011001 g
b11111111111111111001100110011001 8
b10011001100110011001100110011001 {
b10011001100110011001100110011001 z
b10011001100110011001100110011001 !
b10011001100110011001100110011001 S
b101101 E
b1010011100110000 C
1'
#980
0'
#990
b101110 E
b10101001101101 C
b110000 {
b110000 z
b110000 !
b110000 S
b1001100110011001 #"
b1001100110011001 !"
b111 x
b111 $
b111 T
b111 y
b10011001100110011001100110011001 Z
b10011001100110011001100110011001 #
b10011001100110011001100110011001 r
b10011001100110011001100110011001 Y
b10011001100110011001100110011001 "
b10011001100110011001100110011001 q
b1010 [
b1010 %
b1010 s
b10101001101101 ]
b10101001101101 *
b10101001101101 u
b11111111100110011001100110011001 g
b11111111100110011001100110011001 8
0I
b101111 R
b101111 6
b101111 X
b1111 N
b1111 /
b1111 V
b1111 Q
b1111 5
b1111 W
b1111001010100111 K
b1111001010100111 )
b1111001010100111 U
1'
#1000
0'
#1010
b10100110111111101010011100000010 F
1I
b110000 R
b110000 6
b110000 X
b1111111111111111 K
b1111111111111111 )
b1111111111111111 U
b110000 Z
b110000 #
b110000 r
b1010101010101010101010101010101 Y
b1010101010101010101010101010101 "
b1010101010101010101010101010101 q
b1111001010100111 ]
b1111001010100111 *
b1111001010100111 u
b11001100110011 f
b11001100110011 3
b11001100110011 w
b11001100110011 _
b11001100110011 -
b11001100110011 v
b11001100110011 ^
b11001100110011 .
b11001100110011 e
b11001100110011 4
b10011001100110011001100110011001 g
b10011001100110011001100110011001 8
b0 {
b0 z
b0 !
b0 S
b1010 x
b1010 $
b1010 T
b1010 y
b101111 E
b1111001010100111 C
1'
#1020
0'
#1030
b0x F
b110000 E
b1111111111111111 C
1~
1,
b110000 }
b110000 +
b110000 G
b11001100110011 #"
b11001100110011 !"
0$"
0B
b1111111111111111 ]
b1111111111111111 *
b1111111111111111 u
b110000 h
b110000 9
0I
b110001 R
b110001 6
b110001 X
b10 N
b10 /
b10 V
b0 Q
b0 5
b0 W
b1010011011111110 K
b1010011011111110 )
b1010011011111110 U
1'
#1040
0'
